{
  "dependencies": [
    "nlohmann-json",
    "cxxopts",
    "stb",
    "assimp",
    "glfw3",
    "glbinding",
    "glm",
    {
      "name": "imgui",
      "features": [ "glfw-binding", "docking-experimental", "opengl3-binding" ]
    }
  ],
  "builtin-baseline": "272c4fdfaedd72e8b79ffe5f7601e93ca6d02797",
  "overrides": [
    { 
        "name": "glfw3", 
        "version": "3.3.9"
    }
  ]
}